<svg id="x-mark" xmlns="http://www.w3.org/2000/svg" width="23.923" height="23.923" viewBox="0 0 23.923 23.923">
  <path id="Path_30743" data-name="Path 30743" d="M11.961,23.923A11.961,11.961,0,1,1,23.923,11.961,11.975,11.975,0,0,1,11.961,23.923Zm0-22.214A10.253,10.253,0,1,0,22.214,11.961,10.264,10.264,0,0,0,11.961,1.709Zm0,0" fill="#8892a5"/>
  <path id="Path_30744" data-name="Path 30744" d="M155.684,156.54a.851.851,0,0,1-.6-.25l-8.544-8.544a.854.854,0,0,1,1.208-1.208l8.544,8.544a.854.854,0,0,1-.6,1.458Zm0,0" transform="translate(-139.451 -139.452)" fill="#8892a5"/>
  <path id="Path_30745" data-name="Path 30745" d="M147.14,156.539a.854.854,0,0,1-.6-1.459l8.544-8.544a.854.854,0,1,1,1.208,1.208l-8.544,8.544A.851.851,0,0,1,147.14,156.539Zm0,0" transform="translate(-139.451 -139.451)" fill="#8892a5"/>
</svg>
