<svg xmlns="http://www.w3.org/2000/svg" width="40.4" height="29.227" viewBox="0 0 40.4 29.227">
  <g id="net" transform="translate(-2.705 31.932) rotate(-90)">
    <path id="Path_31643" data-name="Path 31643" d="M57.663,70.4a1.566,1.566,0,0,0,1.564-1.564V31.564A1.566,1.566,0,0,0,57.663,30h-26.1A1.566,1.566,0,0,0,30,31.564V68.835A1.566,1.566,0,0,0,31.564,70.4ZM46.053,44.435v2.95H43.174v-2.95Zm-2.878-1.341v-2.95h2.878v2.95Zm-4.219,5.631h2.878v2.95H38.956Zm-1.341,2.95H34.737v-2.95h2.878Zm5.559-2.95h2.878v2.95H43.174Zm4.219,0h2.878v2.95H47.393Zm4.219,0H54.49v2.95H51.612Zm-1.341,4.29v2.95H47.393v-2.95Zm1.341,0H54.49v2.95H51.612Zm4.219,0h2.056v2.95H55.831Zm0-1.341v-2.95h2.056v2.95Zm0-4.29v-2.95h2.056v2.95Zm-1.341,0H51.612v-2.95H54.49Zm-4.219,0H47.393v-2.95h2.878Zm-8.438,0H38.956v-2.95h2.878Zm-4.219,0H34.737v-2.95h2.878Zm-4.219,0H31.341v-2.95H33.4Zm0,1.341v2.95H31.341v-2.95Zm0,4.29v2.95H31.341v-2.95Zm1.341,0h2.878v2.95H34.737Zm4.219,0h2.878v2.95H38.956Zm4.219,0h2.878v2.95H43.174Zm2.878,4.29v2.95H43.174v-2.95Zm0,4.29v2.95H43.174V61.6Zm1.341,0h2.878v2.95H47.393Zm0-1.341v-2.95h2.878v2.95Zm4.219-2.95H54.49v2.95H51.612Zm4.219,0h2.056v2.95H55.831Zm2.056-14.211H55.831v-2.95h2.056Zm-3.4,0H51.612v-2.95H54.49Zm-4.219,0H47.393v-2.95h2.878ZM47.393,38.8v-2.95h2.878V38.8Zm-1.341,0H43.174v-2.95h2.878Zm-4.219,0H38.956v-2.95h2.878Zm0,1.341v2.95H38.956v-2.95Zm-4.219,2.95H34.737v-2.95h2.878Zm-4.219,0H31.341v-2.95H33.4ZM31.341,57.305H33.4v2.95H31.341Zm3.4,0h2.878v2.95H34.737Zm4.219,0h2.878v2.95H38.956Zm2.878,4.29v2.95H38.956V61.6Zm0,4.29v3.173H38.956V65.886Zm1.341,0h2.878v3.173H43.174Zm4.219,0h2.878v3.173H47.393Zm4.219,0H54.49v3.173H51.612Zm0-1.341V61.6H54.49v2.95Zm4.219-2.95h2.056v2.95H55.831ZM57.886,38.8H55.831v-2.95h2.056Zm-3.4,0H51.612v-2.95H54.49Zm-2.878-4.29V31.341H54.49v3.173Zm-1.341,0H47.393V31.341h2.878Zm-4.219,0H43.174V31.341h2.878Zm-4.219,0H38.956V31.341h2.878Zm-4.219,0H34.737V31.341h2.878Zm0,1.341V38.8H34.737v-2.95ZM33.4,38.8H31.341v-2.95H33.4ZM31.341,61.6H33.4v2.95H31.341Zm3.4,0h2.878v2.95H34.737Zm2.878,4.29v3.173H34.737V65.886Zm20.048,3.173H55.831V65.886h2.056v2.95A.224.224,0,0,1,57.663,69.059Zm.223-37.495v2.95H55.831V31.341h1.832A.224.224,0,0,1,57.886,31.564Zm-26.322-.223H33.4v3.173H31.341v-2.95A.224.224,0,0,1,31.564,31.341Zm-.223,37.495v-2.95H33.4v3.173H31.564A.224.224,0,0,1,31.341,68.835Zm0,0" transform="translate(-27.295 -27.295)" fill="#8892a5"/>
  </g>
</svg>
