<svg xmlns="http://www.w3.org/2000/svg" width="37.514" height="37.294" viewBox="0 0 37.514 37.294">
  <g id="grasshopper" transform="translate(-0.875 -1.272)">
    <path id="Path_31604" data-name="Path 31604" d="M38.046,30.051A48.144,48.144,0,0,0,27.731,16.319l3.528.441,1.762,3.523,3.217,1.287.447-1.116-2.793-1.117-1.845-3.69-5.907-.739q-1.028-.871-2.1-1.682c.029-.06.064-.114.091-.175l.05-.117,7.87-.984,1.845-3.69,2.793-1.117-.447-1.116L33.02,7.316l-1.762,3.523-6.534.817.474-1.106L23.6,9.592h1.436v-.6a4.211,4.211,0,0,0-3.173-4.073l1.87-2.806-1-.667L21.08,3.933a1.194,1.194,0,0,0-.847-.351h-1.2a1.2,1.2,0,0,0-.847.35L16.526,1.445l-1,.667L17.4,4.917a4.212,4.212,0,0,0-3.173,4.074v.6h1.436l-1.595.957.474,1.106L8,10.838,6.243,7.316,3.027,6.028,2.58,7.145,5.373,8.261l1.845,3.69,7.87.984.05.117c.026.061.062.115.091.175q-1.076.811-2.1,1.682l-5.907.739-1.845,3.69L2.579,20.453l.447,1.116,3.217-1.287L8,16.759l3.528-.441A48.144,48.144,0,0,0,1.218,30.05,2.06,2.06,0,0,0,3.06,33.032a17.077,17.077,0,0,0,10.032-3.248c.489,3.7,3.64,6.855,5.061,8.1a2.252,2.252,0,0,0,2.958,0c1.421-1.248,4.573-4.4,5.061-8.1A17.074,17.074,0,0,0,36.2,33.032a2.06,2.06,0,0,0,1.842-2.981ZM23.778,8.39H21.435V6.052A3.009,3.009,0,0,1,23.778,8.39ZM20.233,4.784V8.39h-1.2V4.784Zm-2.4,1.268V8.39H15.485A3.009,3.009,0,0,1,17.829,6.052ZM18,9.592h3.273l2.413,1.447-.659,1.54A3,3,0,0,1,20.259,14.4H19a3,3,0,0,1-2.762-1.821l-.659-1.54ZM2.2,30.972a.861.861,0,0,1,.091-.384A46.926,46.926,0,0,1,15.9,14.224,4.194,4.194,0,0,0,19,15.6h.026v.257A15.989,15.989,0,0,1,3.06,31.83a.859.859,0,0,1-.858-.858Zm21.641,1.805a12.974,12.974,0,0,1-4.211.855,12.974,12.974,0,0,1-4.211-.855,9.14,9.14,0,0,1-1.065-2.717,15.231,15.231,0,0,0,5.276,1.168,15.231,15.231,0,0,0,5.276-1.168A9.156,9.156,0,0,1,23.843,32.778Zm-4.211-2.751a14.68,14.68,0,0,1-5.268-1.257,17.4,17.4,0,0,0,1.715-1.731,12.865,12.865,0,0,0,3.553.584,12.882,12.882,0,0,0,3.554-.583A17.255,17.255,0,0,0,24.9,28.77a14.68,14.68,0,0,1-5.268,1.257Zm0-3.606a11.018,11.018,0,0,1-2.74-.4A17.211,17.211,0,0,0,18.225,23.9a10.4,10.4,0,0,0,1.406.112,10.392,10.392,0,0,0,1.406-.112,17.211,17.211,0,0,0,1.334,2.117A11.01,11.01,0,0,1,19.632,26.421Zm-.855-3.653a17.071,17.071,0,0,0,.855-2.413,17.044,17.044,0,0,0,.855,2.413A8.387,8.387,0,0,1,18.777,22.768Zm1.541,14.217a1.076,1.076,0,0,1-1.372,0,19.23,19.23,0,0,1-2.455-2.619,12.383,12.383,0,0,0,3.142.47,12.4,12.4,0,0,0,3.141-.469,19.267,19.267,0,0,1-2.455,2.619ZM36.2,31.83A15.989,15.989,0,0,1,20.233,15.859V15.6h.026a4.2,4.2,0,0,0,3.1-1.378A46.928,46.928,0,0,1,36.971,30.589.857.857,0,0,1,36.2,31.83Z" transform="translate(0 0)" fill="#39b54a" stroke="#39b54a" stroke-width="0.25"/>
    <path id="Path_31605" data-name="Path 31605" d="M42.327,30.886a44.692,44.692,0,0,1,6.51,7.863l1.008-.655a45.906,45.906,0,0,0-6.685-8.076Z" transform="translate(-16.488 -11.4)" fill="#39b54a" stroke="#39b54a" stroke-width="0.25"/>
    <path id="Path_31606" data-name="Path 31606" d="M40.132,27.239l-.784.911q.572.493,1.129,1l.814-.884Q40.721,27.745,40.132,27.239Z" transform="translate(-15.3 -10.291)" fill="#39b54a" stroke="#39b54a" stroke-width="0.25"/>
    <path id="Path_31607" data-name="Path 31607" d="M13.511,45.691l.486,1.1c.446-.2.886-.418,1.307-.657l-.593-1.046C14.324,45.307,13.92,45.51,13.511,45.691Z" transform="translate(-4.992 -17.412)" fill="#39b54a" stroke="#39b54a" stroke-width="0.25"/>
    <path id="Path_31608" data-name="Path 31608" d="M21.455,36.489a13.744,13.744,0,0,1-3.983,4.418l.7.98A14.961,14.961,0,0,0,22.5,37.081Z" transform="translate(-6.572 -13.982)" fill="#39b54a" stroke="#39b54a" stroke-width="0.25"/>
  </g>
</svg>
