<svg xmlns="http://www.w3.org/2000/svg" width="17.236" height="19.483" viewBox="0 0 17.236 19.483">
  <g id="users" transform="translate(-29.84 0.125)">
    <g id="Group_2435" data-name="Group 2435" transform="translate(29.965 0)">
      <path id="Path_30898" data-name="Path 30898" d="M462.8,407.231a.376.376,0,1,0-.225.42A.379.379,0,0,0,462.8,407.231Z" transform="translate(-445.831 -391.643)" fill="#fff" stroke="#fff" stroke-width="0.25"/>
      <path id="Path_30899" data-name="Path 30899" d="M46.284,17.039a.375.375,0,0,0-.518.118,2.82,2.82,0,1,1-.018-3.021l.014.021a.376.376,0,0,0,.634-.4l-.016-.025a3.561,3.561,0,0,0-2.642-1.622,2.157,2.157,0,0,0-2.143-1.933h-.3a3.8,3.8,0,0,0-2.834-6.8,3.8,3.8,0,1,0-6.042,3.469h-.3A2.156,2.156,0,0,0,29.965,9v3.849a.376.376,0,0,0,.376.376h3.969v2.956a.376.376,0,0,0,.376.376h5.227a3.575,3.575,0,0,0,6.49,1.005.376.376,0,0,0-.118-.518Zm-4.207-9.91a3.048,3.048,0,1,1-3.048-3.046A3.05,3.05,0,0,1,42.077,7.129ZM31.637,3.8a3.048,3.048,0,0,1,6.087-.235,3.807,3.807,0,0,0-2.479,3.229A3.051,3.051,0,0,1,31.637,3.8Zm2.672,8.531v.141H30.716V9a1.4,1.4,0,0,1,1.4-1.4h3.139a3.8,3.8,0,0,0,1.5,2.58h-.3A2.156,2.156,0,0,0,34.309,12.328ZM35.06,15.8V12.328a1.4,1.4,0,0,1,1.4-1.4h5.132a1.4,1.4,0,0,1,1.386,1.185,3.577,3.577,0,0,0-3.181,3.55q0,.07,0,.14Z" transform="translate(-29.965 0)" fill="#fff" stroke="#fff" stroke-width="0.25"/>
      <path id="Path_30900" data-name="Path 30900" d="M354.669,385.939a.376.376,0,0,0,.376-.376v-.507h.507a.376.376,0,0,0,0-.751h-.507V383.8a.376.376,0,0,0-.751,0v.507h-.507a.376.376,0,0,0,0,.751h.507v.507A.376.376,0,0,0,354.669,385.939Z" transform="translate(-341.261 -369.019)" fill="#fff" stroke="#fff" stroke-width="0.25"/>
    </g>
  </g>
</svg>
