<svg xmlns="http://www.w3.org/2000/svg" width="15.953" height="20.161" viewBox="0 0 15.953 20.161">
  <path id="bell" d="M69.058,16.045a3.133,3.133,0,0,1-.952-1.3,15,15,0,0,1-.992-5.927c0-.008,0-.015,0-.023a5.72,5.72,0,0,0-3.367-5.188V2.246A2.247,2.247,0,0,0,61.5,0h-.186a2.247,2.247,0,0,0-2.242,2.246V3.611a5.721,5.721,0,0,0-3.368,5.211,15,15,0,0,1-.992,5.927,3.133,3.133,0,0,1-.952,1.3.574.574,0,0,0-.315.653.6.6,0,0,0,.592.462H58.37a3.041,3.041,0,0,0,6.082,0h4.329a.6.6,0,0,0,.592-.462A.574.574,0,0,0,69.058,16.045Zm-8.8-13.8a1.063,1.063,0,0,1,1.061-1.063H61.5a1.063,1.063,0,0,1,1.061,1.063v.981a5.721,5.721,0,0,0-2.308,0V2.246Zm1.154,16.732a1.864,1.864,0,0,1-1.86-1.819H63.27A1.864,1.864,0,0,1,61.411,18.978Zm2.378-3h-8.4a6.2,6.2,0,0,0,.31-.543,14.955,14.955,0,0,0,1.193-6.611,4.521,4.521,0,1,1,9.043,0c0,.007,0,.015,0,.022a14.925,14.925,0,0,0,1.193,6.587,6.192,6.192,0,0,0,.31.543Z" transform="translate(-53.434)" fill="#fff"/>
</svg>
